[
    {"from":"my-car is inexpensive","to":"rule \"CarRule1\" \n if \"?x is inexpensive\" \n then \"?x is made in Japan\"","arrows":"to","label":""},
    {"from":"rule \"CarRule1\" \n if \"?x is inexpensive\" \n then \"?x is made in Japan\"","to":"my-car is made in Japan","arrows":"to","label":""},
    {"from":"my-car is made in Japan","to":"rule \"CarRule8\" \n if \"?x is made in Japan\" \"?x has a VTEC engine\" \n then \"?x is a Honda\"","arrows":"to","label":""},
    {"from":"rule \"CarRule8\" \n if \"?x is made in Japan\" \"?x has a VTEC engine\" \n then \"?x is a Honda\"","to":"my-car is Honda","arrows":"to","label":""},
    {"from":"my-car has a VTEC engine","to":"rule \"CarRule8\" \n if \"?x is made in Japan\" \"?x has a VTEC engine\" \n then \"?x is a Honda\"","arrows":"to","label":""},
    {"from":"my-car is Honda","to":"rule \"CarRule11\" \n if \"?x is a Honda\" \"?x is stylish\" \"?x has several color models\" \"?x has several seats\" \"?x is a wagon\" \n then \"?x is an Accord Wagon\"","arrows":"to","label":""},
    {"from":"rule \"CarRule11\" \n if \"?x is a Honda\" \"?x is stylish\" \"?x has several color models\" \"?x has several seats\" \"?x is a wagon\" \n then \"?x is an Accord Wagon\"","to":my-car is an Accord Wagon,"arrows":"to","label":""},
    {"from":my-car is stylish my-car has several color models my-car has several seats my-car is a wagon,"to":"rule \"CarRule11\" \n if \"?x is a Honda\" \"?x is stylish\" \"?x has several color models\" \"?x has several seats\" \"?x is a wagon\" \n then \"?x is an Accord Wagon\"","arrows":"to","label":""}
]
