[
  {"id":"takada", "label":"takada"},
  {"id":"naitou", "label":"naitou"},
  {"id":"hagawa", "label":"hagawa"},
  {"id":"yosino", "label":"yosino"},
  {"id":"kawase", "label":"kawase"},

  {"id":"NIT-student", "label":"NIT-student"},
  {"id":"student", "label":"student"},
  {"id":"NIT", "label":"NIT"},


  {"id":"26115049", "label":"26115049"},
  {"id":"26115080", "label":"26115080"},
  {"id":"26115098", "label":"26115098"},
  {"id":"26115110", "label":"26115110"},
  {"id":"26115162", "label":"26115162"},

  {"id":"playing game", "label":"playing game"},
  {"id":"singing", "label":"singing"},
  {"id":"training", "label":"training"},
  {"id":"dancing", "label":"dancing"},
  {"id":"reading", "label":"reading"},

  {"id":"robot contest club", "label":"robot contest club"},
  {"id":"data science studies group", "label":"data science studies group"},
  {"id":"club", "label":"club"},

  {"id":"Aichi", "label":"Aichi"},
  {"id":"Fukui", "label":"Fukui"},
  {"id":"Sapporo", "label":"Sapporo"},

  {"id":"Japan", "label":"Japan"},

  {"id":"Osu", "label":"Osu"},
  {"id":"Okazaki", "label":"Okazaki"},
  {"id":"Nagoyajou", "label":"Nagoyajou"},
  {"id":"Tanukikouji", "label":"Tanukikouji"},

  {"id":"0616", "label":"0616"},
  {"id":"0621", "label":"0621"},
  {"id":"0615", "label":"0615"},
  {"id":"0416", "label":"0416"},
  {"id":"0903", "label":"0903"},

  {"id":"train", "label":"train"},
  {"id":"walking", "label":"walking"},
  {"id":"bicycle", "label":"bicycle"},
  {"id":"vehicle", "label":"vehicle"}

]
