[
  {"from":"number", "to":"student"},

  {"from":"takada", "to":"student","arrows":"to","label":"is-a","dashes":true},
  {"from":"naitou", "to":"student","arrows":"to","label":"is-a","dashes":true},
  {"from":"hagawa", "to":"student","arrows":"to","label":"is-a","dashes":true},
  {"from":"yosino", "to":"student","arrows":"to","label":"is-a","dashes":true},
  {"from":"kawase", "to":"student","arrows":"to","label":"is-a","dashes":true},

  {"from":"takada/number", "to":"takada"},
  {"from":"naitou/number", "to":"naitou"},
  {"from":"hagawa/number", "to":"hagawa"},
  {"from":"yosino/number", "to":"yosino"},
  {"from":"kawase/number", "to":"kawase"},

  {"from":"member", "to":"KPgroup10"},
  {"from":"member", "to":"group10_member","arrows":"to"},
  {"from":"task", "to":"KPgroup10"},
  {"from":"task", "to":"task5","arrows":"to"},

  {"from":"member1", "to":"group10_member"},
  {"from":"member2", "to":"group10_member"},
  {"from":"member3", "to":"group10_member"},
  {"from":"member4", "to":"group10_member"},
  {"from":"member5", "to":"group10_member"},

  {"from":"member1", "to":"takada","arrows":"to"},
  {"from":"member2", "to":"naitou","arrows":"to"},
  {"from":"member3", "to":"hagawa","arrows":"to"},
  {"from":"member4", "to":"yosino","arrows":"to"},
  {"from":"member5", "to":"kawase","arrows":"to"},

  {"from":"subtask/number", "to":"subtask"},
  {"from":"compulsory", "to":"subtask"},
  {"from":"content", "to":"subtask"},
  {"from":"duty", "to":"subtask"},

  {"from":"subtask1", "to":"subtask","label":"is-a","arrows":"to","dashes":true},
  {"from":"subtask2", "to":"subtask","label":"is-a","arrows":"to","dashes":true},
  {"from":"subtask3", "to":"subtask","label":"is-a","arrows":"to","dashes":true},
  {"from":"subtask4", "to":"subtask","label":"is-a","arrows":"to","dashes":true},
  {"from":"subtask5", "to":"subtask","label":"is-a","arrows":"to","dashes":true},
  {"from":"subtask6", "to":"subtask","label":"is-a","arrows":"to","dashes":true},

  {"from":"task5/subtask1", "to":"subtask1","arrows":"to"},
  {"from":"task5/subtask2", "to":"subtask2","arrows":"to"},
  {"from":"task5/subtask3", "to":"subtask3","arrows":"to"},
  {"from":"task5/subtask4", "to":"subtask4","arrows":"to"},
  {"from":"task5/subtask5", "to":"subtask5","arrows":"to"},
  {"from":"task5/subtask6", "to":"subtask6","arrows":"to"},

  {"from":"task5/subtask1", "to":"task5"},
  {"from":"task5/subtask2", "to":"task5"},
  {"from":"task5/subtask3", "to":"task5"},
  {"from":"task5/subtask4", "to":"task5"},
  {"from":"task5/subtask5", "to":"task5"},
  {"from":"task5/subtask6", "to":"task5"},

  {"from":"subtask1/number", "to":"subtask1"},
  {"from":"subtask2/number", "to":"subtask2"},
  {"from":"subtask3/number", "to":"subtask3"},
  {"from":"subtask4/number", "to":"subtask4"},
  {"from":"subtask5/number", "to":"subtask5"},
  {"from":"subtask6/number", "to":"subtask6"},

  {"from":"subtask1/compulsory", "to":"subtask1"},
  {"from":"subtask2/compulsory", "to":"subtask2"},
  {"from":"subtask3/compulsory", "to":"subtask3"},
  {"from":"subtask4/compulsory", "to":"subtask4"},
  {"from":"subtask5/compulsory", "to":"subtask5"},
  {"from":"subtask6/compulsory", "to":"subtask6"},

  {"from":"subtask1/content", "to":"subtask1"},
  {"from":"subtask2/content", "to":"subtask2"},
  {"from":"subtask3/content", "to":"subtask3"},
  {"from":"subtask4/content", "to":"subtask4"},
  {"from":"subtask5/content", "to":"subtask5"},
  {"from":"subtask6/content", "to":"subtask6"},

  {"from":"subtask1/duty", "to":"subtask1"},
  {"from":"subtask2/duty", "to":"subtask2"},
  {"from":"subtask3/duty", "to":"subtask3"},
  {"from":"subtask4/duty", "to":"subtask4"},
  {"from":"subtask5/duty", "to":"subtask5"},
  {"from":"subtask6/duty", "to":"subtask6"},

  {"from":"subtask1/duty", "to":"naitou","arrows":"to"},
  {"from":"subtask2/duty", "to":"takada","arrows":"to"},
  {"from":"subtask3/duty", "to":"yosino","arrows":"to"},
  {"from":"subtask4/duty", "to":"kawase","arrows":"to"},
  {"from":"subtask5/duty", "to":"hagawa","arrows":"to"},
  {"from":"subtask6/duty", "to":"yosino","arrows":"to"},

  {}
]
