{
  "ID": "CarRule12",
  "Antecedents": [
    "?x is a foreign car",
    "?x is a sports car",
    "?x is stylish",
    "?x has several color models",
    "?x has a big engine"
  ],
  "Consequent": "?x is a Lamborghini Countach"
}