[
    {
        "id": "1",
        "label": "rule \"CarRule1\" \n if \"?x is inexpensive\" \n then \"?x is made in Japan\" "
    },
    {
        "id": "8",
        "label": "rule \"CarRule8\" \n if \"?x is made in Japan\" \n \"?x has a VTEC engine\" \n then \"?x is a Honda\""
    },
    {
        "id": "11",
        "label": "rule \"CarRule11\" \n  if \"?x is a Honda\" \n  \"?x is stylish\" \n  \"?x has several color models\" \n  \"?x has several seats\"  \n \"?x is a wagon\"  \n then \"?x is an Accord Wagon\""
    }
]
