[
    {
        "id": "16",
        "label": "my-car is inexpensive",
        "level": "6"
    },
    {
        "id": "17",
        "label": "my-car has a VTEC engine",
        "level": "4"
    },
    {
        "id": "22",
        "label": "my-car is made in Japan",
        "level": "4"
    },
    {
        "id": "23",
        "label": "my-car is a Honda",
        "level": "2"
    },
    {
        "id": "24",
        "label": "my-car is an Accord Wagon",
        "level": "0"
    },
    {
        "id": "25",
        "label": "my-car is stylish \n my-car has several color models \n my-car has several seats \n my-car is a wagon",
        "level": "2"
    }
]
