[
    {
        "id": "16",
        "label": "my-car is inexpensive"
    },
    {
        "id": "17",
        "label": "my-car has a VTEC engine"
    },
    {
        "id": "22",
        "label": "my-car is made in Japan"
    },
    {
        "id": "23",
        "label": "my-car is a Honda"
    },
    {
        "id": "24",
        "label": "my-car is an Accord Wagon"
    },
    {
        "id": "25",
        "label": "my-car is stylish \n my-car has several color models \n my-car has several seats \n my-car is a wagon"
    }
]
