[
	{"id":"1","label":"my-car is inexpensive"},
	{"id":"2","label":"my-car has a VTEC engine"},
	{"id":"3","label":"my-car is stylish"},
	{"id":"4","label":"my-car has several color models"},
	{"id":"5","label":"my-car has several seats"},
	{"id":"6","label":"my-car is a wagon"},
	{"id":"7","label":"my-car is made in Japan"}
]
